…
print(custom_uno_results)
```

    ## # A tibble: 160 × 4
    ## # Groups:   model, fold [20]
    ##    model     fold  time uno_c_custom
    ##    <chr>    <int> <int>        <dbl>
    ##  1 CAP          1     1        0.703
    ##  2 CAP          1     2        0.699
    ##  3 CAP          1     3        0.699
    ##  4 CAP          1     4        0.699
    ##  5 CAP          1     5        0.699
    ##  6 CAP          1     6        0.699
    ##  7 CAP          1     7        0.699
    ##  8 CAP          1     8        0.699
    ##  9 Langbehn     1     1        0.694
    ## 10 Langbehn     1     2        0.690
    ## # ℹ 150 more rows
…
